D:\work\src\main\java\ua\lviv\iot\persistance\Dao\AbstractDao.java
D:\work\src\main\java\ua\lviv\iot\ApplianceService.java
D:\work\src\main\java\ua\lviv\iot\DishesType.java
D:\work\src\main\java\ua\lviv\iot\Oven.java
D:\work\src\main\java\ua\lviv\iot\rest\config\JaxRsConfig.java
D:\work\src\main\java\ua\lviv\iot\main.java
D:\work\src\main\java\ua\lviv\iot\persistance\Dao\KitchenApplienceDao.java
D:\work\src\main\java\ua\lviv\iot\KitchenApplianceWriter.java
D:\work\src\main\java\ua\lviv\iot\Toaster.java
D:\work\src\main\java\ua\lviv\iot\Juicer.java
D:\work\src\main\java\ua\lviv\iot\Mixer.java
D:\work\src\main\java\ua\lviv\iot\KitchenManager.java
D:\work\src\main\java\ua\lviv\iot\KitchenAppliance.java
D:\work\src\main\java\ua\lviv\iot\persistance\Dao\KitchenApplienceDaoImpl.java
D:\work\src\main\java\ua\lviv\iot\persistance\Dao\IDao.java
